…
Load Dataset
------------

``` r
library(p8105.datasets)
data(nyc_airbnb)

nyc_airbnb
```

    ## # A tibble: 40,753 x 17
    ##        id review_scores_l… name  host_id host_name neighbourhood_g…
    ##     <int>            <int> <chr>   <int> <chr>     <chr>           
    ##  1 7.95e6               10 City…  1.19e5 Linda & … Bronx           
    ##  2 1.60e7               NA WATE…  9.12e6 Collins   Bronx           
    ##  3 1.89e6               NA Quai…  9.82e6 Steve     Bronx           
    ##  4 6.63e6               10 Larg…  1.39e7 Arlene    Bronx           
    ##  5 5.56e6               10 Quai…  2.88e7 Phoebe    Bronx           
    ##  6 9.15e6               10 Cozy…  4.03e5 Diane     Bronx           
    ##  7 1.17e7               10 Cozy…  5.67e7 Josue     Bronx           
    ##  8 7.15e5                9 2 Be…  3.68e6 Enrique   Bronx           
    ##  9 1.79e7               10 Spac…  1.13e7 Yahaira   Bronx           
    ## 10 1.82e5                9 PRIV…  8.73e5 Christia… Bronx           
    ## # ... with 40,743 more rows, and 11 more variables: neighbourhood <chr>,
    ## #   latitude <dbl>, longitude <dbl>, room_type <chr>, price <int>,
    ## #   minimum_nights <int>, number_of_reviews <int>, last_review <date>,
    ## #   reviews_per_month <dbl>, calculated_host_listings_count <int>,
    ## #   availability_365 <int>
…
``` r
## View allows you to view in a new tab
nyc_airbnb %>% 
  count(boro, neighbourhood) 
```

    ## # A tibble: 217 x 3
    ##    boro  neighbourhood         n
    ##    <chr> <chr>             <int>
    ##  1 Bronx Allerton             23
    ##  2 Bronx Baychester            6
    ##  3 Bronx Belmont               8
    ##  4 Bronx Bronxdale            12
    ##  5 Bronx Castle Hill           1
    ##  6 Bronx City Island           7
    ##  7 Bronx Claremont Village     9
    ##  8 Bronx Clason Point         21
    ##  9 Bronx Co-op City            5
    ## 10 Bronx Concourse            37
    ## # ... with 207 more rows
…
``` r
nyc_airbnb %>% 
  group_by(neighbourhood) %>% 
  summarize(mean_rating_neighborhood = mean(stars, na.rm = TRUE)) %>% 
  arrange(desc(mean_rating_neighborhood))
```

    ## # A tibble: 217 x 2
    ##    neighbourhood mean_rating_neighborhood
    ##    <chr>                            <dbl>
    ##  1 Belle Harbor                         5
    ##  2 Bergen Beach                         5
    ##  3 City Island                          5
    ##  4 Dongan Hills                         5
    ##  5 Douglaston                           5
    ##  6 Edenwald                             5
    ##  7 Eltingville                          5
    ##  8 Hollis Hills                         5
    ##  9 Huguenot                             5
    ## 10 Morris Park                          5
    ## # ... with 207 more rows
…
    ## # A tibble: 3 x 2
    ##   room_type       mean_rating_room_type
    ##   <chr>                           <dbl>
    ## 1 Shared room                      4.65
    ## 2 Private room                     4.67
    ## 3 Entire home/apt                  4.75

``` r
nyc_airbnb %>% 
  group_by(neighbourhood, room_type) %>% 
  summarize(mean_rating = mean(stars, na.rm = TRUE), sd(stars, na.rm = TRUE)) %>% 
  arrange(desc(neighbourhood)) 
```

    ## # A tibble: 523 x 4
    ## # Groups:   neighbourhood [217]
    ##    neighbourhood   room_type       mean_rating `sd(stars, na.rm = TRUE)`
    ##    <chr>           <chr>                 <dbl>                     <dbl>
    ##  1 Woodside        Entire home/apt        4.69                     0.308
    ##  2 Woodside        Private room           4.61                     0.367
    ##  3 Woodside        Shared room            4.78                     0.264
    ##  4 Woodrow         Entire home/apt      NaN                      NaN    
    ##  5 Woodlawn        Entire home/apt        4.75                     0.354
    ##  6 Woodlawn        Private room           4.67                     0.577
    ##  7 Woodhaven       Entire home/apt        4.62                     0.25 
    ##  8 Woodhaven       Private room           4.52                     0.360
    ##  9 Woodhaven       Shared room            4.5                     NA    
    ## 10 Windsor Terrace Entire home/apt        4.82                     0.270
    ## # ... with 513 more rows

How is price related to other variables?
----------------------------------------

``` r
nyc_airbnb %>% 
  group_by(neighbourhood) %>% 
  summarize(mean_price = mean(price, na.rm = TRUE)) %>% 
  arrange(desc(mean_price))
```

    ## # A tibble: 217 x 2
    ##    neighbourhood     mean_price
    ##    <chr>                  <dbl>
    ##  1 Westerleigh             785 
    ##  2 Mill Basin              500 
    ##  3 Woodrow                 458.
    ##  4 Tribeca                 353.
    ##  5 Randall Manor           345.
    ##  6 Flatiron District       319.
    ##  7 NoHo                    302.
    ##  8 Sea Gate                288.
    ##  9 Hollis Hills            265 
    ## 10 Greenwich Village       258.
    ## # ... with 207 more rows
…
